Algorithmic Decision Making & Census Data – Mackenna Amole - CPLN 5920 Portfolio
…
Code

pa_clean <- pa_data %>%
  mutate(
    # Remove state name from county names
    county_name = str_remove(NAME, ", Pennsylvania"),
    # Remove "County" word
    county_name = str_remove(county_name, " County")
  )

# Compare before and after
select(pa_clean, NAME, county_name)

# A tibble: 67 × 2
   NAME                           county_name
   <chr>                          <chr>      
 1 Adams County, Pennsylvania     Adams      
 2 Allegheny County, Pennsylvania Allegheny  
 3 Armstrong County, Pennsylvania Armstrong  
 4 Beaver County, Pennsylvania    Beaver     
 5 Bedford County, Pennsylvania   Bedford    
 6 Berks County, Pennsylvania     Berks      
 7 Blair County, Pennsylvania     Blair      
 8 Bradford County, Pennsylvania  Bradford   
 9 Bucks County, Pennsylvania     Bucks      
10 Butler County, Pennsylvania    Butler     
# ℹ 57 more rows
…
