Lab 1: Census Data Quality for Policy Decisions – Mackenna Amole - CPLN 5920 Portfolio
…
6.3 Specific Recommendations

Your Task: Create a decision framework for algorithm implementation.

# Create a summary table using your county reliability data
# Include: county name, median income, MOE percentage, reliability category

county_incomepop

# A tibble: 67 × 10
   GEOID NAME    total_popE total_popM median_incomeE median_incomeM county_name
   <chr> <chr>        <dbl>      <dbl>          <dbl>          <dbl> <chr>      
 1 42001 Adams …     104604         NA          78975           3334 Adams      
 2 42003 Allegh…    1245310         NA          72537            869 Allegheny  
 3 42005 Armstr…      65538         NA          61011           2202 Armstrong  
 4 42007 Beaver…     167629         NA          67194           1531 Beaver     
 5 42009 Bedfor…      47613         NA          58337           2606 Bedford    
 6 42011 Berks …     428483         NA          74617           1191 Berks      
 7 42013 Blair …     122640         NA          59386           2058 Blair      
 8 42015 Bradfo…      60159         NA          60650           2167 Bradford   
 9 42017 Bucks …     645163         NA         107826           1516 Bucks      
10 42019 Butler…     194562         NA          82932           2164 Butler     
# ℹ 57 more rows
# ℹ 3 more variables: MOE_per <dbl>, reliability <chr>, Low_Flag <int>
…
